{
  "LuaSnip": { "branch": "master", "commit": "03c8e67eb7293c404845b3982db895d59c0d1538" },
  "gitsigns.nvim": { "branch": "main", "commit": "0b04035bb7b3c83e999b9676e2fb46fd0aa9f910" },
  "gruvbox.nvim": { "branch": "main", "commit": "68c3460a5d1d1a362318960035c9f3466d5011f5" },
  "lazy.nvim": { "branch": "main", "commit": "7e6c863bc7563efbdd757a310d17ebc95166cef3" },
  "linediff.vim": { "branch": "main", "commit": "ddae71ef5f94775d101c1c70032ebe8799f32745" },
  "nvim-lspconfig": { "branch": "master", "commit": "ff2b85abaa810f6611233dbe6d31c07510ebf43d" },
  "nvim-surround": { "branch": "main", "commit": "9f0cb495f25bff32c936062d85046fbda0c43517" },
  "nvim-treesitter": { "branch": "master", "commit": "ac6a72a6f83218216948e898362f09029b8035dc" },
  "plenary.nvim": { "branch": "master", "commit": "2d9b06177a975543726ce5c73fca176cedbffe9d" },
  "tabular": { "branch": "master", "commit": "12437cd1b53488e24936ec4b091c9324cafee311" },
  "telescope.nvim": { "branch": "master", "commit": "2eca9ba22002184ac05eddbe47a7fe2d5a384dfc" },
  "traces.vim": { "branch": "master", "commit": "9663fcf84de5776bee71b6c816c25ccb6ea11d1a" },
  "vim-buffest": { "branch": "master", "commit": "6ed80444d687cbcb11dcbe83dd94ec9888329f1b" },
  "vim-commentary": { "branch": "master", "commit": "64a654ef4a20db1727938338310209b6a63f60c9" },
  "vim-fugitive": { "branch": "master", "commit": "fcb4db52e7f65b95705aa58f0f2df1312c1f2df2" },
  "vim-markdown": { "branch": "master", "commit": "f9f845f28f4da33a7655accb22f4ad21f7d9fb66" },
  "vim-table-mode": { "branch": "master", "commit": "e4365bde024f73e205eefa2fb78e3029ddb92ea9" },
  "vimtex": { "branch": "master", "commit": "b8bb79b5fb27e9030ade92e75cd9375416f2c666" }
}
